<?xml version="1.0" encoding="UTF-8" standalone="no"?>
<svg
   xmlns:dc="http://purl.org/dc/elements/1.1/"
   xmlns:cc="http://creativecommons.org/ns#"
   xmlns:rdf="http://www.w3.org/1999/02/22-rdf-syntax-ns#"
   xmlns:svg="http://www.w3.org/2000/svg"
   xmlns="http://www.w3.org/2000/svg"
   xmlns:sodipodi="http://sodipodi.sourceforge.net/DTD/sodipodi-0.dtd"
   xmlns:inkscape="http://www.inkscape.org/namespaces/inkscape"
   width="40.908424"
   height="206.19145"
   viewBox="0 0 40.908425 206.19146"
   fill="none"
   version="1.1"
   id="svg14"
   sodipodi:docname="button-collapse.svg"
   inkscape:version="1.0.2 (e86c870879, 2021-01-15, custom)">
  <metadata
     id="metadata20">
    <rdf:RDF>
      <cc:Work
         rdf:about="">
        <dc:format>image/svg+xml</dc:format>
        <dc:type
           rdf:resource="http://purl.org/dc/dcmitype/StillImage" />
        <dc:title></dc:title>
      </cc:Work>
    </rdf:RDF>
  </metadata>
  <defs
     id="defs18" />
  <sodipodi:namedview
     pagecolor="#ffffff"
     bordercolor="#666666"
     borderopacity="1"
     objecttolerance="10"
     gridtolerance="10"
     guidetolerance="10"
     inkscape:pageopacity="0"
     inkscape:pageshadow="2"
     inkscape:window-width="640"
     inkscape:window-height="480"
     id="namedview16"
     showgrid="false"
     inkscape:zoom="22.627417"
     inkscape:cx="5.9834928"
     inkscape:cy="24.077835"
     inkscape:current-layer="svg14"
     fit-margin-top="0"
     fit-margin-left="0"
     fit-margin-right="0"
     fit-margin-bottom="0"
     showguides="true"
     inkscape:guide-bbox="true">
    <sodipodi:guide
       position="0.072604758,-32.31742"
       orientation="1,0"
       id="guide845" />
    <sodipodi:guide
       position="1.3333351,-54.569465"
       orientation="1,0"
       id="guide847" />
  </sodipodi:namedview>
  <path
     d="m -0.13208713,13.610684 c 0,44.855601 34.73891513,36.886641 34.73891513,46.862465 v 85.217131 c 0,9.97517 -34.73536079,1.72088 -34.73536079,46.57187"
     fill="#FFFDF0"
     id="path4"
     style="fill:#fffdf0;fill-opacity:1;stroke-width:2.66667;stroke-miterlimit:4;stroke-dasharray:none"
     sodipodi:nodetypes="cssc" />
  <path
     d="m 34.923068,62.709362 4.652023,1.0506 v 39.321748 39.32176 l -4.814349,1.08715 m -24.130045,18.02462 v 23.63394 l -9.297362,16.07407 v -8.81407 c 1e-7,-44.85099 33.273493,-36.74373 33.273493,-46.7189 V 60.473149 c 0,-9.975824 -33.273493,-1.591812 -33.273493,-46.447414 V 4.9683734 l 9.297362,16.0747236 v 23.556658"
     stroke="#44433d"
     stroke-width="1.75824"
     id="path2"
     sodipodi:nodetypes="ccccccccssssccc"
     style="display:inline;stroke-width:2.66667;stroke-miterlimit:4;stroke-dasharray:none" />
  <path
     d="m 14.573686,77.263256 5.39156,3.10747 5.391494,3.10681 v -6.21428 -6.214286 l -5.391494,3.107476 z"
     stroke="#44433d"
     stroke-width="1.75824"
     stroke-linejoin="bevel"
     id="path8"
     style="stroke-width:2.66667;stroke-miterlimit:4;stroke-dasharray:none" />
  <path
     d="m 14.573686,128.24743 5.39156,3.10681 5.391494,3.10747 v -6.21428 -6.21429 l -5.391494,3.10682 z"
     stroke="#44433d"
     stroke-width="1.75824"
     stroke-linejoin="bevel"
     id="path10"
     style="stroke-width:2.66667;stroke-miterlimit:4;stroke-dasharray:none" />
  <path
     d="m 11.289906,102.75534 5.391494,3.10681 5.39156,3.10748 v -6.21429 -6.214284 l -5.39156,3.10681 z"
     stroke="#44433d"
     stroke-width="1.75824"
     stroke-linejoin="bevel"
     id="path12"
     style="stroke-width:2.66667;stroke-miterlimit:4;stroke-dasharray:none" />
</svg>
