<?xml version="1.0" encoding="UTF-8" standalone="no"?>
<svg
   xmlns:dc="http://purl.org/dc/elements/1.1/"
   xmlns:cc="http://creativecommons.org/ns#"
   xmlns:rdf="http://www.w3.org/1999/02/22-rdf-syntax-ns#"
   xmlns:svg="http://www.w3.org/2000/svg"
   xmlns="http://www.w3.org/2000/svg"
   xmlns:xlink="http://www.w3.org/1999/xlink"
   xmlns:sodipodi="http://sodipodi.sourceforge.net/DTD/sodipodi-0.dtd"
   xmlns:inkscape="http://www.inkscape.org/namespaces/inkscape"
   sodipodi:docname="cursor2.svg"
   inkscape:version="1.0.2 (e86c870879, 2021-01-15, custom)"
   id="svg8"
   version="1.1"
   viewBox="0 0 5.8123932 5.8123932"
   height="5.8123932mm"
   width="5.8123932mm">
  <defs
     id="defs2">
    <marker
       style="overflow:visible"
       id="Arrow1Lstart"
       refX="0"
       refY="0"
       orient="auto"
       inkscape:stockid="Arrow1Lstart"
       inkscape:isstock="true">
      <path
         transform="matrix(0.8,0,0,0.8,10,0)"
         style="fill:#fdfdfd;fill-opacity:1;fill-rule:evenodd;stroke:#757369;stroke-width:1pt;stroke-opacity:0.503346"
         d="M 0,0 5,-5 -12.5,0 5,5 Z"
         id="path3558" />
    </marker>
    <linearGradient
       inkscape:collect="always"
       id="linearGradient3542">
      <stop
         style="stop-color:#fdfdfd;stop-opacity:0.15294118"
         offset="0"
         id="stop3538" />
      <stop
         style="stop-color:#44433d;stop-opacity:0.32156864"
         offset="1"
         id="stop3540" />
    </linearGradient>
    <radialGradient
       inkscape:collect="always"
       xlink:href="#linearGradient3542"
       id="radialGradient3548"
       cx="142.28856"
       cy="55.675087"
       fx="142.28856"
       fy="55.675087"
       r="2.7298076"
       gradientUnits="userSpaceOnUse"
       gradientTransform="matrix(0,2.2681896,-2.1533585,0,237.36514,-232.0732)" />
  </defs>
  <sodipodi:namedview
     inkscape:window-maximized="1"
     inkscape:window-y="0"
     inkscape:window-x="0"
     inkscape:window-height="1359"
     inkscape:window-width="2560"
     inkscape:snap-page="true"
     inkscape:showpageshadow="false"
     inkscape:pagecheckerboard="false"
     showgrid="false"
     inkscape:document-rotation="0"
     inkscape:current-layer="layer2"
     inkscape:document-units="mm"
     inkscape:cy="15.994838"
     inkscape:cx="9.3050217"
     inkscape:zoom="22.4"
     inkscape:pageshadow="2"
     inkscape:pageopacity="0"
     borderopacity="1"
     bordercolor="#000000"
     pagecolor="#606060"
     id="base"
     fit-margin-top="0"
     fit-margin-left="0"
     fit-margin-right="0"
     fit-margin-bottom="0" />
  <metadata
     id="metadata5">
    <rdf:RDF>
      <cc:Work
         rdf:about="">
        <dc:format>image/svg+xml</dc:format>
        <dc:type
           rdf:resource="http://purl.org/dc/dcmitype/StillImage" />
        <dc:title></dc:title>
      </cc:Work>
    </rdf:RDF>
  </metadata>
  <g
     inkscape:label="Layer 1"
     id="layer2"
     inkscape:groupmode="layer"
     transform="translate(-114.57053,-87.758034)">
    <circle
       style="fill:url(#radialGradient3548);fill-opacity:1;stroke:#44433d;stroke-width:0.352778;stroke-linecap:butt;stroke-linejoin:round;stroke-miterlimit:4;stroke-dasharray:none;stroke-dashoffset:0;stroke-opacity:1;paint-order:normal"
       id="path3479"
       cx="117.47672"
       cy="90.66423"
       r="2.7298076" />
  </g>
</svg>
