<?xml version="1.0" encoding="UTF-8" standalone="no"?>
<svg
   xmlns:dc="http://purl.org/dc/elements/1.1/"
   xmlns:cc="http://creativecommons.org/ns#"
   xmlns:rdf="http://www.w3.org/1999/02/22-rdf-syntax-ns#"
   xmlns:svg="http://www.w3.org/2000/svg"
   xmlns="http://www.w3.org/2000/svg"
   xmlns:sodipodi="http://sodipodi.sourceforge.net/DTD/sodipodi-0.dtd"
   xmlns:inkscape="http://www.inkscape.org/namespaces/inkscape"
   sodipodi:docname="fileware.svg"
   inkscape:version="1.0.2 (e86c870879, 2021-01-15, custom)"
   id="svg8"
   version="1.1"
   viewBox="0 0 156.67341 37.780907"
   height="37.780907mm"
   width="156.67342mm">
  <defs
     id="defs2" />
  <sodipodi:namedview
     inkscape:window-maximized="1"
     inkscape:window-y="0"
     inkscape:window-x="0"
     inkscape:window-height="1359"
     inkscape:window-width="2560"
     inkscape:snap-page="true"
     inkscape:showpageshadow="false"
     inkscape:pagecheckerboard="false"
     showgrid="false"
     inkscape:document-rotation="0"
     inkscape:current-layer="layer2"
     inkscape:document-units="mm"
     inkscape:cy="52.267272"
     inkscape:cx="262.21335"
     inkscape:zoom="1.979899"
     inkscape:pageshadow="2"
     inkscape:pageopacity="0"
     borderopacity="1"
     bordercolor="#000000"
     pagecolor="#606060"
     id="base"
     showguides="true"
     inkscape:guide-bbox="true"
     fit-margin-top="0"
     fit-margin-left="0"
     fit-margin-right="0"
     fit-margin-bottom="0">
    <sodipodi:guide
       position="30.532313,19.048231"
       orientation="1,0"
       id="guide874" />
    <sodipodi:guide
       position="156.74381,18.286951"
       orientation="1,0"
       id="guide876" />
    <sodipodi:guide
       position="25.483716,37.780907"
       orientation="0,-1"
       id="guide878" />
    <sodipodi:guide
       position="30.532311,2.5801911"
       orientation="0,-1"
       id="guide880" />
  </sodipodi:namedview>
  <metadata
     id="metadata5">
    <rdf:RDF>
      <cc:Work
         rdf:about="">
        <dc:format>image/svg+xml</dc:format>
        <dc:type
           rdf:resource="http://purl.org/dc/dcmitype/StillImage" />
        <dc:title></dc:title>
      </cc:Work>
    </rdf:RDF>
  </metadata>
  <g
     inkscape:label="Layer 1"
     id="layer2"
     inkscape:groupmode="layer"
     transform="translate(-50.583987,-68.931725)">
    <path
       id="rect832"
       style="fill:#ffffff;fill-opacity:1;stroke:none;stroke-width:0.393944;stroke-linecap:round;stroke-linejoin:round;paint-order:markers fill stroke"
       d="M 56.08344,68.931725 V 88.592702 L 50.583987,94.092158 63.204454,106.71263 75.824633,94.092158 69.56951,87.837031 V 68.931725 Z" />
    <text
       xml:space="preserve"
       style="font-size:22.1456px;line-height:1.25;font-family:'Dalek Pinpoint';-inkscape-font-specification:'Dalek Pinpoint';fill:#ffffff;fill-opacity:1;stroke-width:0.553644"
       x="79.389297"
       y="87.423698"
       id="text840"><tspan
         sodipodi:role="line"
         id="tspan838"
         x="79.389297"
         y="87.423698"
         style="font-style:normal;font-variant:normal;font-weight:bold;font-stretch:normal;font-family:Arial;-inkscape-font-specification:'Arial Bold';fill:#ffffff;fill-opacity:1;stroke-width:0.553644">Fileware.net</tspan><tspan
         sodipodi:role="line"
         x="79.389297"
         y="117.85719"
         style="font-style:normal;font-variant:normal;font-weight:bold;font-stretch:normal;font-family:Arial;-inkscape-font-specification:'Arial Bold';fill:#ffffff;fill-opacity:1;stroke-width:0.553644"
         id="tspan842" /></text>
    <text
       xml:space="preserve"
       style="font-size:13.0108px;line-height:1.25;font-family:'Dalek Pinpoint';-inkscape-font-specification:'Dalek Pinpoint';fill:#ffffff;fill-opacity:1;stroke-width:0.325271"
       x="80.891273"
       y="103.97452"
       id="text840-7"><tspan
         sodipodi:role="line"
         x="80.891273"
         y="103.97452"
         style="font-style:normal;font-variant:normal;font-weight:normal;font-stretch:normal;font-family:Arial;-inkscape-font-specification:Arial;fill:#ffffff;fill-opacity:1;stroke-width:0.325271"
         id="tspan842-5">the files that you need</tspan></text>
  </g>
</svg>
