<?xml version="1.0" encoding="UTF-8" standalone="no"?>
<svg
   xmlns:dc="http://purl.org/dc/elements/1.1/"
   xmlns:cc="http://creativecommons.org/ns#"
   xmlns:rdf="http://www.w3.org/1999/02/22-rdf-syntax-ns#"
   xmlns:svg="http://www.w3.org/2000/svg"
   xmlns="http://www.w3.org/2000/svg"
   xmlns:sodipodi="http://sodipodi.sourceforge.net/DTD/sodipodi-0.dtd"
   xmlns:inkscape="http://www.inkscape.org/namespaces/inkscape"
   sodipodi:docname="leaves1.svg"
   inkscape:version="1.0.2 (e86c870879, 2021-01-15, custom)"
   id="svg8"
   version="1.1"
   viewBox="0 0 29.802202 20.687841"
   height="20.687841mm"
   width="29.802202mm">
  <defs
     id="defs2" />
  <sodipodi:namedview
     inkscape:window-maximized="1"
     inkscape:window-y="0"
     inkscape:window-x="0"
     inkscape:window-height="1359"
     inkscape:window-width="2560"
     inkscape:snap-page="true"
     inkscape:showpageshadow="false"
     inkscape:pagecheckerboard="false"
     showgrid="false"
     inkscape:document-rotation="0"
     inkscape:current-layer="layer2"
     inkscape:document-units="mm"
     inkscape:cy="45.322896"
     inkscape:cx="19.116068"
     inkscape:zoom="0.98994949"
     inkscape:pageshadow="2"
     inkscape:pageopacity="0"
     borderopacity="1"
     bordercolor="#000000"
     pagecolor="#606060"
     id="base"
     fit-margin-top="0"
     fit-margin-left="0"
     fit-margin-right="0"
     fit-margin-bottom="0" />
  <metadata
     id="metadata5">
    <rdf:RDF>
      <cc:Work
         rdf:about="">
        <dc:format>image/svg+xml</dc:format>
        <dc:type
           rdf:resource="http://purl.org/dc/dcmitype/StillImage" />
        <dc:title></dc:title>
      </cc:Work>
    </rdf:RDF>
  </metadata>
  <g
     inkscape:label="Layer 1"
     id="layer2"
     inkscape:groupmode="layer"
     transform="translate(-91.877173,-61.849532)">
    <path
       id="path884"
       style="fill:none;stroke:#44433d;stroke-width:0.705556;stroke-linecap:butt;stroke-linejoin:miter;stroke-miterlimit:4;stroke-dasharray:none;stroke-opacity:1"
       d="m 108.51759,73.304683 c 0,0 -0.16226,2.143825 0.73281,4.587662 0.89507,2.443837 2.90816,3.966436 2.90816,3.966436 m -10.19008,-6.057595 c 0,0 2.60948,2.944176 6.53087,4.80014 3.92138,1.855964 7.88281,2.29346 13.04738,0.197802 m -14.16447,-15.346427 2.30465,2.288493 2.45381,-1.26559 m -1.35828,-4.011442 -2.26485,10.840521 m -2.72691,-6.45372 2.72691,6.45372 4.03678,-5.587632 -1.77193,-5.252889 z m -13.459929,-0.480016 5.78529,5.589289 3.852439,3.84095 m -8.563589,-4.234973 4.71115,0.394023 -0.11316,-4.352078 m -5.67213,-1.237211 1.90557,9.375378 7.732159,0.05486 -0.97487,-7.533482 z" />
  </g>
</svg>
