<?xml version="1.0" encoding="UTF-8" standalone="no"?>
<svg
   xmlns:dc="http://purl.org/dc/elements/1.1/"
   xmlns:cc="http://creativecommons.org/ns#"
   xmlns:rdf="http://www.w3.org/1999/02/22-rdf-syntax-ns#"
   xmlns:svg="http://www.w3.org/2000/svg"
   xmlns="http://www.w3.org/2000/svg"
   xmlns:sodipodi="http://sodipodi.sourceforge.net/DTD/sodipodi-0.dtd"
   xmlns:inkscape="http://www.inkscape.org/namespaces/inkscape"
   sodipodi:docname="ico-sunburst.svg"
   inkscape:version="1.0.2 (e86c870879, 2021-01-15, custom)"
   id="svg8"
   version="1.1"
   viewBox="0 0 52.95034 31.749998"
   height="31.749998mm"
   width="52.95034mm">
  <defs
     id="defs2" />
  <sodipodi:namedview
     inkscape:window-maximized="1"
     inkscape:window-y="0"
     inkscape:window-x="0"
     inkscape:window-height="1359"
     inkscape:window-width="2560"
     inkscape:snap-page="true"
     inkscape:showpageshadow="false"
     inkscape:pagecheckerboard="false"
     showgrid="false"
     inkscape:document-rotation="0"
     inkscape:current-layer="layer2"
     inkscape:document-units="mm"
     inkscape:cy="110.11038"
     inkscape:cx="96.192594"
     inkscape:zoom="1.979899"
     inkscape:pageshadow="2"
     inkscape:pageopacity="0"
     borderopacity="1"
     bordercolor="#000000"
     pagecolor="#606060"
     id="base"
     lock-margins="false"
     fit-margin-top="0"
     fit-margin-left="0"
     fit-margin-right="0"
     fit-margin-bottom="0" />
  <metadata
     id="metadata5">
    <rdf:RDF>
      <cc:Work
         rdf:about="">
        <dc:format>image/svg+xml</dc:format>
        <dc:type
           rdf:resource="http://purl.org/dc/dcmitype/StillImage" />
        <dc:title></dc:title>
      </cc:Work>
    </rdf:RDF>
  </metadata>
  <g
     inkscape:label="Layer 1"
     id="layer2"
     inkscape:groupmode="layer"
     transform="translate(-77.660003,-74.680306)">
    <path
       id="path2101"
       style="fill:none;stroke:#44433d;stroke-width:0.705551;stroke-linecap:round;stroke-linejoin:round;stroke-miterlimit:4;stroke-dasharray:none;stroke-opacity:1"
       d="M 78.012779,96.701691 H 130.25757 M 104.13523,75.032933 102.06026,85.68676 a 11.211695,11.211695 0 0 1 0.0107,-0.0023 11.211695,11.211695 0 0 1 0.0954,-0.01744 11.211695,11.211695 0 0 1 0.0957,-0.01672 11.211695,11.211695 0 0 1 0.0959,-0.01579 11.211695,11.211695 0 0 1 0.0959,-0.0151 11.211695,11.211695 0 0 1 0.0959,-0.01394 11.211695,11.211695 0 0 1 0.0961,-0.01349 11.211695,11.211695 0 0 1 0.0964,-0.01255 11.211695,11.211695 0 0 1 0.0964,-0.0116 11.211695,11.211695 0 0 1 0.0964,-0.0107 11.211695,11.211695 0 0 1 0.0966,-0.01001 11.211695,11.211695 0 0 1 0.0966,-0.0091 11.211695,11.211695 0 0 1 0.0969,-0.0083 11.211695,11.211695 0 0 1 0.0969,-0.0074 11.211695,11.211695 0 0 1 0.0969,-0.0067 11.211695,11.211695 0 0 1 0.0969,-0.0057 11.211695,11.211695 0 0 1 0.0971,-0.0048 11.211695,11.211695 0 0 1 0.0969,-0.0041 11.211695,11.211695 0 0 1 0.0971,-0.0032 11.211695,11.211695 0 0 1 0.0971,-0.0023 11.211695,11.211695 0 0 1 0.0971,-0.0018 11.211695,11.211695 0 0 1 0.0971,-8.99e-4 11.211695,11.211695 0 0 1 0.0371,0 11.211695,11.211695 0 0 1 0.0971,2.39e-4 11.211695,11.211695 0 0 1 0.0971,0.0013 11.211695,11.211695 0 0 1 0.0971,0.0023 11.211695,11.211695 0 0 1 0.0971,0.0032 11.211695,11.211695 0 0 1 0.0969,0.0036 11.211695,11.211695 0 0 1 0.0971,0.0046 11.211695,11.211695 0 0 1 0.0969,0.0054 11.211695,11.211695 0 0 1 0.0969,0.0062 11.211695,11.211695 0 0 1 0.0969,0.0072 11.211695,11.211695 0 0 1 0.0969,0.0079 11.211695,11.211695 0 0 1 0.0966,0.0088 11.211695,11.211695 0 0 1 0.0966,0.0098 11.211695,11.211695 0 0 1 0.0966,0.01047 11.211695,11.211695 0 0 1 0.0964,0.01137 11.211695,11.211695 0 0 1 0.0964,0.01209 11.211695,11.211695 0 0 1 0.0961,0.01299 11.211695,11.211695 0 0 1 0.0962,0.01394 11.211695,11.211695 0 0 1 0.0959,0.01461 11.211695,11.211695 0 0 1 0.0959,0.01555 11.211695,11.211695 0 0 1 0.0957,0.01627 11.211695,11.211695 0 0 1 0.0954,0.01717 11.211695,11.211695 0 0 1 0.0471,0.0088 z m -6.290422,12.391099 -9.163438,-6.176154 6.175691,9.162739 a 11.211695,11.211695 0 0 1 0.0093,-0.01394 11.211695,11.211695 0 0 1 0.05482,-0.0799 11.211695,11.211695 0 0 1 0.05575,-0.07966 11.211695,11.211695 0 0 1 0.05644,-0.07896 11.211695,11.211695 0 0 1 0.05691,-0.07874 11.211695,11.211695 0 0 1 0.05783,-0.07803 11.211695,11.211695 0 0 1 0.05828,-0.07757 11.211695,11.211695 0 0 1 0.05898,-0.07711 11.211695,11.211695 0 0 1 0.05991,-0.07641 11.211695,11.211695 0 0 1 0.06038,-0.07618 11.211695,11.211695 0 0 1 0.06085,-0.07549 11.211695,11.211695 0 0 1 0.06178,-0.07502 11.211695,11.211695 0 0 1 0.06225,-0.07432 11.211695,11.211695 0 0 1 0.06317,-0.07385 11.211695,11.211695 0 0 1 0.0634,-0.07339 11.211695,11.211695 0 0 1 0.06433,-0.07293 11.211695,11.211695 0 0 1 0.0648,-0.07222 11.211695,11.211695 0 0 1 0.0655,-0.07153 11.211695,11.211695 0 0 1 0.06618,-0.07107 11.211695,11.211695 0 0 1 0.06665,-0.0706 11.211695,11.211695 0 0 1 0.06735,-0.0699 11.211695,11.211695 0 0 1 0.06806,-0.06945 11.211695,11.211695 0 0 1 0.06851,-0.06876 11.211695,11.211695 0 0 1 0.06922,-0.06805 11.211695,11.211695 0 0 1 0.06968,-0.06758 11.211695,11.211695 0 0 1 0.07037,-0.06712 11.211695,11.211695 0 0 1 0.07084,-0.06618 11.211695,11.211695 0 0 1 0.0713,-0.06572 11.211695,11.211695 0 0 1 0.07222,-0.06526 11.211695,11.211695 0 0 1 0.07246,-0.06433 11.211695,11.211695 0 0 1 0.07316,-0.06387 11.211695,11.211695 0 0 1 0.07363,-0.0634 11.211695,11.211695 0 0 1 0.07432,-0.06247 11.211695,11.211695 0 0 1 0.07479,-0.06201 11.211695,11.211695 0 0 1 0.07526,-0.06132 11.211695,11.211695 0 0 1 0.07595,-0.06062 11.211695,11.211695 0 0 1 0.07618,-0.05992 11.211695,11.211695 0 0 1 0.07688,-0.05921 11.211695,11.211695 0 0 1 0.07757,-0.05876 11.211695,11.211695 0 0 1 0.0778,-0.05783 11.211695,11.211695 0 0 1 0.07828,-0.05737 11.211695,11.211695 0 0 1 0.07897,-0.05668 11.211695,11.211695 0 0 1 0.07944,-0.05597 11.211695,11.211695 0 0 1 0.07989,-0.05505 11.211695,11.211695 0 0 1 0.04809,-0.03275 z M 93.116302,94.63466 82.502193,96.70174 H 92.92353 a 11.211695,11.211695 0 0 1 4.93e-4,-0.0943 11.211695,11.211695 0 0 1 0.0011,-0.09708 11.211695,11.211695 0 0 1 0.0021,-0.09685 11.211695,11.211695 0 0 1 0.0031,-0.09708 11.211695,11.211695 0 0 1 0.0037,-0.09709 11.211695,11.211695 0 0 1 0.0046,-0.09707 11.211695,11.211695 0 0 1 0.0053,-0.09685 11.211695,11.211695 0 0 1 0.0065,-0.09685 11.211695,11.211695 0 0 1 0.007,-0.09685 11.211695,11.211695 0 0 1 0.0081,-0.09685 11.211695,11.211695 0 0 1 0.0088,-0.09661 11.211695,11.211695 0 0 1 0.0095,-0.09662 11.211695,11.211695 0 0 1 0.01045,-0.09661 11.211695,11.211695 0 0 1 0.01138,-0.09638 11.211695,11.211695 0 0 1 0.01208,-0.09638 11.211695,11.211695 0 0 1 0.01301,-0.09616 11.211695,11.211695 0 0 1 0.01394,-0.09615 11.211695,11.211695 0 0 1 0.01464,-0.09592 11.211695,11.211695 0 0 1 0.01556,-0.09592 11.211695,11.211695 0 0 1 0.01626,-0.09569 11.211695,11.211695 0 0 1 0.01719,-0.09545 11.211695,11.211695 0 0 1 0.0078,-0.04226 z m 22.037378,-0.0018 a 11.211695,11.211695 0 0 1 9.5e-4,0.0077 11.211695,11.211695 0 0 1 0.0177,0.09546 11.211695,11.211695 0 0 1 0.0165,0.09568 11.211695,11.211695 0 0 1 0.0158,0.09569 11.211695,11.211695 0 0 1 0.0151,0.09592 11.211695,11.211695 0 0 1 0.0142,0.09615 11.211695,11.211695 0 0 1 0.0132,0.09615 11.211695,11.211695 0 0 1 0.0125,0.09638 11.211695,11.211695 0 0 1 0.0117,0.09638 11.211695,11.211695 0 0 1 0.0107,0.09638 11.211695,11.211695 0 0 1 0.01,0.09661 11.211695,11.211695 0 0 1 0.01,0.09661 11.211695,11.211695 0 0 1 0.009,0.09685 11.211695,11.211695 0 0 1 0.008,0.09662 11.211695,11.211695 0 0 1 0.007,0.09709 11.211695,11.211695 0 0 1 0.006,0.09685 11.211695,11.211695 0 0 1 0.005,0.09685 11.211695,11.211695 0 0 1 0.004,0.09708 11.211695,11.211695 0 0 1 0.003,0.09709 11.211695,11.211695 0 0 1 0.002,0.09708 11.211695,11.211695 0 0 1 0.002,0.09708 11.211695,11.211695 0 0 1 9e-4,0.09707 11.211695,11.211695 0 0 1 2.4e-4,0.03416 h 10.42971 z m -1.74028,-4.222242 6.17569,-9.162739 -9.16344,6.175923 a 11.211695,11.211695 0 0 1 0.0174,0.01187 11.211695,11.211695 0 0 1 0.0801,0.05505 11.211695,11.211695 0 0 1 0.0794,0.05575 11.211695,11.211695 0 0 1 0.0792,0.0562 11.211695,11.211695 0 0 1 0.0786,0.05715 11.211695,11.211695 0 0 1 0.0781,0.05782 11.211695,11.211695 0 0 1 0.0776,0.0583 11.211695,11.211695 0 0 1 0.0772,0.05899 11.211695,11.211695 0 0 1 0.0767,0.05968 11.211695,11.211695 0 0 1 0.076,0.06039 11.211695,11.211695 0 0 1 0.0755,0.06108 11.211695,11.211695 0 0 1 0.075,0.06178 11.211695,11.211695 0 0 1 0.0744,0.06225 11.211695,11.211695 0 0 1 0.0741,0.06294 11.211695,11.211695 0 0 1 0.0731,0.06363 11.211695,11.211695 0 0 1 0.0729,0.06433 11.211695,11.211695 0 0 1 0.0723,0.06478 11.211695,11.211695 0 0 1 0.0715,0.0655 11.211695,11.211695 0 0 1 0.0713,0.06618 11.211695,11.211695 0 0 1 0.0703,0.06665 11.211695,11.211695 0 0 1 0.07,0.06735 11.211695,11.211695 0 0 1 0.0695,0.06805 11.211695,11.211695 0 0 1 0.0688,0.06852 11.211695,11.211695 0 0 1 0.0683,0.06921 11.211695,11.211695 0 0 1 0.0676,0.06968 11.211695,11.211695 0 0 1 0.0669,0.07014 11.211695,11.211695 0 0 1 0.0664,0.07107 11.211695,11.211695 0 0 1 0.0658,0.0713 11.211695,11.211695 0 0 1 0.0651,0.072 11.211695,11.211695 0 0 1 0.0644,0.0727 11.211695,11.211695 0 0 1 0.0639,0.07316 11.211695,11.211695 0 0 1 0.0633,0.07363 11.211695,11.211695 0 0 1 0.0623,0.07433 11.211695,11.211695 0 0 1 0.062,0.07479 11.211695,11.211695 0 0 1 0.0614,0.07526 11.211695,11.211695 0 0 1 0.0607,0.07572 11.211695,11.211695 0 0 1 0.0598,0.07642 11.211695,11.211695 0 0 1 0.0595,0.07688 11.211695,11.211695 0 0 1 0.0585,0.07734 11.211695,11.211695 0 0 1 0.0581,0.07804 11.211695,11.211695 0 0 1 0.0572,0.07826 11.211695,11.211695 0 0 1 0.0567,0.07897 11.211695,11.211695 0 0 1 0.0559,0.07943 11.211695,11.211695 0 0 1 0.0553,0.07967 11.211695,11.211695 0 0 1 0.0302,0.04459 z m 0.0947,6.294031 a 9.3728758,9.3728758 0 0 1 -9.37289,9.372881 9.3728758,9.3728758 0 0 1 -9.372866,-9.372881 9.3728758,9.3728758 0 0 1 9.372866,-9.372878 9.3728758,9.3728758 0 0 1 9.37289,9.372878 z" />
  </g>
</svg>
