<?xml version="1.0" encoding="UTF-8" standalone="no"?>
<svg
   xmlns:dc="http://purl.org/dc/elements/1.1/"
   xmlns:cc="http://creativecommons.org/ns#"
   xmlns:rdf="http://www.w3.org/1999/02/22-rdf-syntax-ns#"
   xmlns:svg="http://www.w3.org/2000/svg"
   xmlns="http://www.w3.org/2000/svg"
   xmlns:sodipodi="http://sodipodi.sourceforge.net/DTD/sodipodi-0.dtd"
   xmlns:inkscape="http://www.inkscape.org/namespaces/inkscape"
   sodipodi:docname="ico-sidenav.svg"
   inkscape:version="1.0.2 (e86c870879, 2021-01-15, custom)"
   id="svg8"
   version="1.1"
   viewBox="0 0 31.749999 31.750001"
   height="120"
   width="120">
  <defs
     id="defs2" />
  <sodipodi:namedview
     inkscape:window-maximized="1"
     inkscape:window-y="0"
     inkscape:window-x="0"
     inkscape:window-height="1359"
     inkscape:window-width="2560"
     inkscape:snap-page="true"
     inkscape:showpageshadow="false"
     inkscape:pagecheckerboard="false"
     showgrid="false"
     inkscape:document-rotation="0"
     inkscape:current-layer="layer2"
     inkscape:document-units="mm"
     inkscape:cy="75.226784"
     inkscape:cx="94.792164"
     inkscape:zoom="3.959798"
     inkscape:pageshadow="2"
     inkscape:pageopacity="0"
     borderopacity="1"
     bordercolor="#000000"
     pagecolor="#606060"
     id="base"
     units="px" />
  <metadata
     id="metadata5">
    <rdf:RDF>
      <cc:Work
         rdf:about="">
        <dc:format>image/svg+xml</dc:format>
        <dc:type
           rdf:resource="http://purl.org/dc/dcmitype/StillImage" />
        <dc:title></dc:title>
      </cc:Work>
    </rdf:RDF>
  </metadata>
  <g
     inkscape:label="Layer 1"
     id="layer2"
     inkscape:groupmode="layer">
    <path
       id="path867"
       style="fill:none;stroke:#44433d;stroke-width:0.679023;stroke-linecap:butt;stroke-linejoin:round;stroke-miterlimit:4;stroke-dasharray:none;stroke-opacity:1"
       d="m 20.715187,18.449025 c 0,0 0.202122,0.964397 -0.09124,2.014851 -0.293309,1.050454 -0.947894,3.170503 -1.614324,3.722321 M 16.624602,13.472559 c 0,0 1.132219,8.081691 2.329015,10.662468 1.196808,2.580777 2.898457,6.273423 4.77223,7.086521 m -3.960575,-18.092159 1.550729,1.375839 1.602368,-0.816284 m -1.151535,-2.666237 -1.051647,7.426318 m -2.014314,-4.062489 3.065961,-3.363829 1.744495,4.118751 -2.796142,3.307567 z M 16.077346,2.9435281 17.905021,1.2563442 20.03795,2.9118807 18.283068,4.2044672 Z M 12.286666,3.9048276 9.7323829,3.131272 8.3811423,5.3819995 10.982909,5.8231391 Z m -1.303757,1.9183115 2.955659,-4.1135368 4.3445,2.4948649 -3.089941,2.2995903 z m 4.210218,0.6809184 1.431475,6.9685015 M 5.1543772,4.8776412 16.624602,13.472559 23.252781,0.55643209 15.193127,6.5040594 Z" />
  </g>
</svg>
